{
  "project_info": {
    "project_number": "870659288651",
    "firebase_url": "https://entouch-1a873.firebaseio.com",
    "project_id": "entouch-1a873",
    "storage_bucket": "entouch-1a873.appspot.com"
  },
  "client": [
    {
      "client_info": {
        "mobilesdk_app_id": "1:870659288651:android:5ed943d78188f26e",
        "android_client_info": {
          "package_name": "com.blacxcode.entouch"
        }
      },
      "oauth_client": [
        {
          "client_id": "870659288651-7kuq9m6lussrs26risnng9tp16ibt8jl.apps.googleusercontent.com",
          "client_type": 1,
          "android_info": {
            "package_name": "com.blacxcode.entouch",
            "certificate_hash": "7652599b0dfd9be94630fe0d2a7cf7e146b91215"
          }
        },
        {
          "client_id": "870659288651-qmrvtpbvp7hers22f1mhvppu5goh89ke.apps.googleusercontent.com",
          "client_type": 3
        },
        {
          "client_id": "870659288651-qmrvtpbvp7hers22f1mhvppu5goh89ke.apps.googleusercontent.com",
          "client_type": 3
        }
      ],
      "api_key": [
        {
          "current_key": "AIzaSyBv8LV-j5CEqlgpyQqq7Qotoqfr_hbgdYo"
        }
      ],
      "services": {
        "analytics_service": {
          "status": 1
        },
        "appinvite_service": {
          "status": 2,
          "other_platform_oauth_client": [
            {
              "client_id": "870659288651-qmrvtpbvp7hers22f1mhvppu5goh89ke.apps.googleusercontent.com",
              "client_type": 3
            }
          ]
        },
        "ads_service": {
          "status": 2
        }
      }
    }
  ],
  "configuration_version": "1"
}